…
# Part: Aisle

aisle_data = instacart %>% 
  # group by aisle name
  group_by(aisle) %>% 
  # count the number of order for each distinct aisle
  distinct() %>% 
  summarize(n_aisle = n()) %>% 
  # sort this list descendently, so the first row is the most ordered aisle
  arrange(desc(n_aisle))

aisle_data
```

    ## # A tibble: 134 x 2
    ##    aisle                         n_aisle
    ##    <chr>                           <int>
    ##  1 fresh vegetables               150609
    ##  2 fresh fruits                   150473
    ##  3 packaged vegetables fruits      78493
    ##  4 yogurt                          55240
    ##  5 packaged cheese                 41699
    ##  6 water seltzer sparkling water   36617
    ##  7 milk                            32644
    ##  8 chips pretzels                  31269
    ##  9 soy lactosefree                 26240
    ## 10 bread                           23635
    ## # ... with 124 more rows
…
# make a good dataframe for this plot first
aisle_plot = aisle_data %>% 
  # limiting this to aisles with more than 10000 items ordered
  filter(n_aisle > 10000) %>% 
  # change the order of the datafram
  select(n_aisle, everything()) %>% 
  # change the order of factor aisle according to n_aisle
  mutate(aisle = forcats::fct_reorder(aisle, n_aisle))

aisle_plot
```

    ## # A tibble: 39 x 2
    ##    n_aisle aisle                        
    ##      <int> <fct>                        
    ##  1  150609 fresh vegetables             
    ##  2  150473 fresh fruits                 
    ##  3   78493 packaged vegetables fruits   
    ##  4   55240 yogurt                       
    ##  5   41699 packaged cheese              
    ##  6   36617 water seltzer sparkling water
    ##  7   32644 milk                         
    ##  8   31269 chips pretzels               
    ##  9   26240 soy lactosefree              
    ## 10   23635 bread                        
    ## # ... with 29 more rows
…
brfss_data
```

    ## # A tibble: 8,500 x 23
    ##     year state locationdesc class topic question response sample_size
    ##    <int> <chr> <chr>        <chr> <chr> <chr>    <fct>          <int>
    ##  1  2010 AL    AL - Jeffer~ Heal~ Over~ How is ~ Excelle~          94
    ##  2  2010 AL    AL - Jeffer~ Heal~ Over~ How is ~ Good             208
    ##  3  2010 AL    AL - Jeffer~ Heal~ Over~ How is ~ Fair             107
    ##  4  2010 AL    AL - Jeffer~ Heal~ Over~ How is ~ Poor              45
    ##  5  2010 AL    AL - Mobile~ Heal~ Over~ How is ~ Excelle~          91
    ##  6  2010 AL    AL - Mobile~ Heal~ Over~ How is ~ Good             224
    ##  7  2010 AL    AL - Mobile~ Heal~ Over~ How is ~ Fair             120
    ##  8  2010 AL    AL - Mobile~ Heal~ Over~ How is ~ Poor              66
    ##  9  2010 AL    AL - Tuscal~ Heal~ Over~ How is ~ Excelle~          58
    ## 10  2010 AL    AL - Tuscal~ Heal~ Over~ How is ~ Good             171
    ## # ... with 8,490 more rows, and 15 more variables: data_value <dbl>,
    ## #   confidence_limit_low <dbl>, confidence_limit_high <dbl>,
    ## #   display_order <int>, data_value_unit <chr>, data_value_type <chr>,
    ## #   data_value_footnote_symbol <chr>, data_value_footnote <chr>,
    ## #   data_source <chr>, class_id <chr>, topic_id <chr>, location_id <chr>,
    ## #   question_id <chr>, response_id <chr>, geo_location <chr>

``` r
# Part: 7 or more location

# create a good dataframe for this part

states_7 = brfss_data %>% 
  # separate locationdesc from the state name and the county name
  separate(locationdesc, into = c("state", "county"), sep = 5) %>% 
  select(-state)
  
states_7
```

    ## # A tibble: 8,500 x 22
    ##     year class county topic question response sample_size data_value
    ##    <int> <chr> <chr>  <chr> <chr>    <fct>          <int>      <dbl>
    ##  1  2010 Heal~ Jeffe~ Over~ How is ~ Excelle~          94       18.9
    ##  2  2010 Heal~ Jeffe~ Over~ How is ~ Good             208       33.1
    ##  3  2010 Heal~ Jeffe~ Over~ How is ~ Fair             107       12.5
    ##  4  2010 Heal~ Jeffe~ Over~ How is ~ Poor              45        5.5
    ##  5  2010 Heal~ Mobil~ Over~ How is ~ Excelle~          91       15.6
    ##  6  2010 Heal~ Mobil~ Over~ How is ~ Good             224       31.2
    ##  7  2010 Heal~ Mobil~ Over~ How is ~ Fair             120       15.5
    ##  8  2010 Heal~ Mobil~ Over~ How is ~ Poor              66        6.4
    ##  9  2010 Heal~ Tusca~ Over~ How is ~ Excelle~          58       20.8
    ## 10  2010 Heal~ Tusca~ Over~ How is ~ Good             171       33.8
    ## # ... with 8,490 more rows, and 14 more variables:
    ## #   confidence_limit_low <dbl>, confidence_limit_high <dbl>,
    ## #   display_order <int>, data_value_unit <chr>, data_value_type <chr>,
    ## #   data_value_footnote_symbol <chr>, data_value_footnote <chr>,
    ## #   data_source <chr>, class_id <chr>, topic_id <chr>, location_id <chr>,
    ## #   question_id <chr>, response_id <chr>, geo_location <chr>
…
